\relax 
\babel@aux{english}{}
\babel@aux{english}{}
\@writefile{toc}{\contentsline {section}{\numberline {1}Introduction}{1}}
\@writefile{toc}{\contentsline {section}{\numberline {2}Method}{1}}
\@writefile{toc}{\contentsline {section}{\numberline {3}Result}{2}}
\@writefile{toc}{\contentsline {section}{\numberline {4}Conclusion}{3}}
